...........................
----------------------------------------------------------------------
Ran 27 tests in 11.055s

OK
Name             Stmts   Miss Branch BrPart  Cover   Missing
------------------------------------------------------------
Collatz.py          70      0     30      0   100%
TestCollatz.py     107      0      0      0   100%
------------------------------------------------------------
TOTAL              177      0     30      0   100%